{
  "name": "Main-0ebccd12",
  "displayName": "Main",
  "maxRunTime": "4200s",
  "fuzzTargets": [
    "AFL_API_fuzz_test-5a6e0c77",
    "API_fuzz_test-8c898f8e"
  ],
  "fuzzerRunConfigurations": [
    {
      "engine": "LIBFUZZER",
      "sanitizer": "ADDRESS",
      "numberOfJobs": 1,
      "environment": [
        ""
      ],
      "engineArguments": [
        ""
      ]
    },
    {
      "engine": "LIBFUZZER",
      "sanitizer": "ADDRESS",
      "numberOfJobs": 1,
      "environment": [
        ""
      ],
      "engineArguments": [
        "-use_value_profile=1"
      ]
    }
  ]
}